%YAML 1.1
%TAG !u! tag:unity3d.com,2011:
--- !u!21 &2100000
Material:
  serializedVersion: 6
  m_ObjectHideFlags: 0
  m_PrefabParentObject: {fileID: 0}
  m_PrefabInternal: {fileID: 0}
  m_Name: Water
  m_Shader: {fileID: 4800000, guid: 1cac2e0bcc34e4b3cbb4bd85982eba83, type: 3}
  m_ShaderKeywords: _EMISSION _NORMALMAP
  m_LightmapFlags: 1
  m_CustomRenderQueue: -1
  stringTagMap: {}
  m_SavedProperties:
    serializedVersion: 2
    m_TexEnvs:
    - first:
        name: _BumpMap
      second:
        m_Texture: {fileID: 2800000, guid: b6d152ca041a7d447b4bd5009fb0a2c6, type: 3}
        m_Scale: {x: 1, y: 1}
        m_Offset: {x: 0, y: 0}
    - first:
        name: _DetailAlbedoMap
      second:
        m_Texture: {fileID: 0}
        m_Scale: {x: 0, y: 0}
        m_Offset: {x: 0, y: 0}
    - first:
        name: _DetailMask
      second:
        m_Texture: {fileID: 0}
        m_Scale: {x: 1, y: 1}
        m_Offset: {x: 0, y: 0}
    - first:
        name: _DetailNormalMap
      second:
        m_Texture: {fileID: 0}
        m_Scale: {x: 1, y: 1}
        m_Offset: {x: 0, y: 0}
    - first:
        name: _EmissionMap
      second:
        m_Texture: {fileID: 0}
        m_Scale: {x: 404, y: 404}
        m_Offset: {x: 0, y: 0}
    - first:
        name: _Fresnel
      second:
        m_Texture: {fileID: 0}
        m_Scale: {x: 1, y: 1}
        m_Offset: {x: 0, y: 0}
    - first:
        name: _MainTex
      second:
        m_Texture: {fileID: 0}
        m_Scale: {x: 404, y: 404}
        m_Offset: {x: 0, y: 0}
    - first:
        name: _MetallicGlossMap
      second:
        m_Texture: {fileID: 0}
        m_Scale: {x: 1, y: 1}
        m_Offset: {x: 0, y: 0}
    - first:
        name: _OcclusionMap
      second:
        m_Texture: {fileID: 0}
        m_Scale: {x: 1, y: 1}
        m_Offset: {x: 0, y: 0}
    - first:
        name: _ParallaxMap
      second:
        m_Texture: {fileID: 0}
        m_Scale: {x: 1, y: 1}
        m_Offset: {x: 0, y: 0}
    - first:
        name: _ReflectionTex
      second:
        m_Texture: {fileID: 0}
        m_Scale: {x: 1, y: 1}
        m_Offset: {x: 0, y: 0}
    - first:
        name: _ReflectiveColor
      second:
        m_Texture: {fileID: 0}
        m_Scale: {x: 1, y: 1}
        m_Offset: {x: 0, y: 0}
    - first:
        name: _RefractionTex
      second:
        m_Texture: {fileID: 0}
        m_Scale: {x: 1, y: 1}
        m_Offset: {x: 0, y: 0}
    - first:
        name: _ShoreTex
      second:
        m_Texture: {fileID: 0}
        m_Scale: {x: 1, y: 1}
        m_Offset: {x: 0, y: 0}
    m_Floats:
    - first:
        name: _BumpScale
      second: 0.68
    - first:
        name: _Cutoff
      second: 0.5
    - first:
        name: _DetailNormalMapScale
      second: 1
    - first:
        name: _DstBlend
      second: 0
    - first:
        name: _FresnelScale
      second: 0.75
    - first:
        name: _GerstnerIntensity
      second: 1
    - first:
        name: _GlossMapScale
      second: 1
    - first:
        name: _Glossiness
      second: 1
    - first:
        name: _GlossyReflections
      second: 1
    - first:
        name: _Metallic
      second: 0.432
    - first:
        name: _Mode
      second: 0
    - first:
        name: _OcclusionStrength
      second: 1
    - first:
        name: _Parallax
      second: 0.02
    - first:
        name: _ReflDistort
      second: 0.12
    - first:
        name: _RefrDistort
      second: 0
    - first:
        name: _Shininess
      second: 200
    - first:
        name: _SmoothnessTextureChannel
      second: 0
    - first:
        name: _SpecularHighlights
      second: 1
    - first:
        name: _SrcBlend
      second: 1
    - first:
        name: _UVSec
      second: 0
    - first:
        name: _WaveScale
      second: 0.02
    - first:
        name: _ZWrite
      second: 1
    m_Colors:
    - first:
        name: WaveSpeed
      second: {r: 19, g: 9, b: -16, a: -7}
    - first:
        name: _AnimationDirection
      second: {r: 1, g: 1, b: 1, a: 1}
    - first:
        name: _AnimationTiling
      second: {r: 2.2, g: 2.2, b: -1.1, a: -1.1}
    - first:
        name: _BaseColor
      second: {r: 0.53999996, g: 0.95, b: 0.98999995, a: 0.5}
    - first:
        name: _BumpDirection
      second: {r: 1, g: 1, b: -1, a: 1}
    - first:
        name: _BumpTiling
      second: {r: 1, g: 1, b: -2, a: 3}
    - first:
        name: _Color
      second: {r: 0.5955882, g: 0.5517949, b: 0.34158736, a: 0.891}
    - first:
        name: _DistortParams
      second: {r: 1, g: 1, b: 2, a: 1.15}
    - first:
        name: _EmissionColor
      second: {r: 0, g: 0, b: 0, a: 1}
    - first:
        name: _Foam
      second: {r: 0.1, g: 0.375, b: 0, a: 0}
    - first:
        name: _GAmplitude
      second: {r: 0.3, g: 0.35, b: 0.25, a: 0.25}
    - first:
        name: _GDirectionAB
      second: {r: 0.3, g: 0.85, b: 0.85, a: 0.25}
    - first:
        name: _GDirectionCD
      second: {r: 0.1, g: 0.9, b: 0.5, a: 0.5}
    - first:
        name: _GFrequency
      second: {r: 1.3, g: 1.35, b: 1.25, a: 1.25}
    - first:
        name: _GSpeed
      second: {r: 1.2, g: 1.375, b: 1.1, a: 1.5}
    - first:
        name: _GSteepness
      second: {r: 1, g: 1, b: 1, a: 1}
    - first:
        name: _HorizonColor
      second: {r: 0.17199996, g: 0.46299994, b: 0.43499997, a: 1}
    - first:
        name: _InvFadeParemeter
      second: {r: 0.15, g: 0.15, b: 0.5, a: 1}
    - first:
        name: _ReflectionColor
      second: {r: 0.53999996, g: 0.95, b: 0.98999995, a: 0.5}
    - first:
        name: _RefrColor
      second: {r: 0, g: 0.87931013, b: 1, a: 1}
    - first:
        name: _SpecularColor
      second: {r: 0.72, g: 0.72, b: 0.72, a: 1}
    - first:
        name: _WorldLightDir
      second: {r: 0, g: 0.1, b: -0.5, a: 0}
